^C:\USERS\USER\SOURCE\REPOS\HOMEWORK14\HOMEWORK14.CPP
C:\USERS\USER\SOURCE\REPOS\HOMEWORK14\DEBUG\VC142.PDB
C:\USERS\USER\SOURCE\REPOS\HOMEWORK14\DEBUG\VC142.IDB
C:\USERS\USER\SOURCE\REPOS\HOMEWORK14\DEBUG\HOMEWORK14.OBJ
